Data Analysis and Visualization in R Using smplot2
…
I will be using an example from the book R for Data Science (https://r4ds.had.co.nz/data-visualisation.html).

Question: Do cars with large engines use up more fuel than the those with small ones?

First, let’s open mpg, which is a data frame stored in the ggplot2 package.

mpg contains data about cars in the US. You can type ?mpg for more information.

displ: the size of the car’s engine in liters

hwy: fuel efficiency. If it’s high, then the car uses less fuel per distance.

mpg

## # A tibble: 234 x 11
##    manufacturer model      displ  year   cyl trans      drv     cty   hwy fl    class  
##    <chr>        <chr>      <dbl> <int> <int> <chr>      <chr> <int> <int> <chr> <chr>  
##  1 audi         a4           1.8  1999     4 auto(l5)   f        18    29 p     compact
##  2 audi         a4           1.8  1999     4 manual(m5) f        21    29 p     compact
##  3 audi         a4           2    2008     4 manual(m6) f        20    31 p     compact
##  4 audi         a4           2    2008     4 auto(av)   f        21    30 p     compact
##  5 audi         a4           2.8  1999     6 auto(l5)   f        16    26 p     compact
##  6 audi         a4           2.8  1999     6 manual(m5) f        18    26 p     compact
##  7 audi         a4           3.1  2008     6 auto(av)   f        18    27 p     compact
##  8 audi         a4 quattro   1.8  1999     4 manual(m5) 4        18    26 p     compact
##  9 audi         a4 quattro   1.8  1999     4 auto(l5)   4        16    25 p     compact
## 10 audi         a4 quattro   2    2008     4 manual(m6) 4        20    28 p     compact
## # ... with 224 more rows
…
Here’s the boxplot! But I think there is a problem here. Day Three precedes Day Two in the x-axis.

Exercise: Why do you think Three appeared first?

4.2.4 Problem: Alphabetical order

The issue with the boxplot is that the x-axis follows an alphabetical order.

Th precedes Tw. In short, R does not seem to know that we want the order to be One -> Two -> Three.

R has decided to follow the alphabetical order is because the column Day is shown as <chr>, which means character.

df

## # A tibble: 90 x 3
##    Subject  Value Day  
##    <chr>    <dbl> <chr>
##  1 S1      -0.752 One  
##  2 S2       0.220 One  
##  3 S3      -1.00  One  
##  4 S4       1.91  One  
##  5 S5       0.395 One  
##  6 S6      -0.985 One  
##  7 S7       0.585 One  
##  8 S8       0.886 One  
##  9 S9       0.691 One  
## 10 S10     -0.366 One  
## # ... with 80 more rows
…
By using factor(), you are making the Day column of df into factor from character. However, you will need to store the factored version of df$Day by using <-. If not, df$Day will stay as character.

levels argument in factor() allows you to specify the order of the factors.

For more information about factors, please check Chapter 15 of R for Data Science (https://r4ds.had.co.nz/factors.html).

Note: you do not have to understand this part 100%. However, if you do encounter similar issues, I suggest you resolve it with the solution above.

4.2.6 Double-check if the ‘Day’ column is factor

Let’s open the data frame df again.

df

## # A tibble: 90 x 3
##    Subject  Value Day  
##    <chr>    <dbl> <fct>
##  1 S1      -0.752 One  
##  2 S2       0.220 One  
##  3 S3      -1.00  One  
##  4 S4       1.91  One  
##  5 S5       0.395 One  
##  6 S6      -0.985 One  
##  7 S7       0.585 One  
##  8 S8       0.886 One  
##  9 S9       0.691 One  
## 10 S10     -0.366 One  
## # ... with 80 more rows
…
The first argument of filter(), select(), summarise() and mutate() is a data frame.

The subsequent argument specifies how the data frame should be treated.

The new printed result is a new data frame.

filter() is used to filter for rows that meet the requirement of your interest.

Here is another example.

filter(df, Day == 1)

## # A tibble: 60 x 4
##    Subject Day    Time Cbratio
##    <chr>   <fct> <dbl>   <dbl>
##  1 S1      1         0  -0.421
##  2 S2      1         0   2.82 
##  3 S3      1         0   1.69 
##  4 S4      1         0   2.55 
##  5 S5      1         0  -0.217
##  6 S6      1         0   0.626
##  7 S7      1         0   2.62 
##  8 S8      1         0   1.42 
##  9 S9      1         0   1.54 
## 10 S10     1         0   3.05 
## # ... with 50 more rows
…
## # A tibble: 6 x 4
##   Subject Day    Time Cbratio
##   <chr>   <fct> <dbl>   <dbl>
## 1 S1      1         0  -0.421
## 2 S1      1         1   0.802
## 3 S1      1         2   1.01 
## 4 S1      1         3   0.634
## 5 S1      1         4  -0.245
## 6 S1      1         5  -0.834

The above can be read as: filter for all rows of the data frame df that have 1 in the Day column AND have S1 in the Subject column.

filter(df, Day == 1 | Subject == 'S1')

## # A tibble: 66 x 4
##    Subject Day    Time Cbratio
##    <chr>   <fct> <dbl>   <dbl>
##  1 S1      1         0  -0.421
##  2 S2      1         0   2.82 
##  3 S3      1         0   1.69 
##  4 S4      1         0   2.55 
##  5 S5      1         0  -0.217
##  6 S6      1         0   0.626
##  7 S7      1         0   2.62 
##  8 S8      1         0   1.42 
##  9 S9      1         0   1.54 
## 10 S10     1         0   3.05 
## # ... with 56 more rows
…
## # A tibble: 1 x 1
##   average
##     <dbl>
## 1    1.35

However, in this case, we get an example of Cbratio across Subject, Day and Time. This average value itself is not so meaningful. If we wish to obtain the average for each Day and Time, we can use the function group_by() to group data for each day and time.

As it was the case before, the first argument of group_by() is a data frame.

The second argument of group_by() is the name of the column through which you would like to group the data.

by_day_time <- group_by(df, Day, Time)
print(by_day_time)

## # A tibble: 120 x 4
## # Groups:   Day, Time [12]
##    Subject Day    Time Cbratio
##    <chr>   <fct> <dbl>   <dbl>
##  1 S1      1         0  -0.421
##  2 S2      1         0   2.82 
##  3 S3      1         0   1.69 
##  4 S4      1         0   2.55 
##  5 S5      1         0  -0.217
##  6 S6      1         0   0.626
##  7 S7      1         0   2.62 
##  8 S8      1         0   1.42 
##  9 S9      1         0   1.54 
## 10 S10     1         0   3.05 
## # ... with 110 more rows
…
The steps above (filter(), group_by() and summarise()) are coded separately. Each line has one of these steps. However, these can be combined in one line by using pipe %>% as shown below.

avg_day1 <- df %>% filter(Day == 1) %>% group_by(Time) %>%
  summarise(Average = mean(Cbratio),
          StdError = sm_stdErr(Cbratio))

Now the steps (filter(), group_by() and summarise()) are written from left-to-right in a continuous fashion, rather than a separate step.

Pipe %>% is part of the tidyverse package, and it is deemed a necessary tool for data analysis using R. It is extremely useful because it allows you to write codes that are easier to understand. Notice that if you use %>%, the input does not have to written because the input is actually the code that is written just before. For example:

df %>% filter(Day == 1)

## # A tibble: 60 x 4
##    Subject Day    Time Cbratio
##    <chr>   <fct> <dbl>   <dbl>
##  1 a       1         0  -0.421
##  2 b       1         0   2.82 
##  3 c       1         0   1.69 
##  4 d       1         0   2.55 
##  5 e       1         0  -0.217
##  6 f       1         0   0.626
##  7 g       1         0   2.62 
##  8 h       1         0   1.42 
##  9 u       1         0   1.54 
## 10 j       1         0   3.05 
## # ... with 50 more rows

filter(df, Day == 1)

## # A tibble: 60 x 4
##    Subject Day    Time Cbratio
##    <chr>   <fct> <dbl>   <dbl>
##  1 a       1         0  -0.421
##  2 b       1         0   2.82 
##  3 c       1         0   1.69 
##  4 d       1         0   2.55 
##  5 e       1         0  -0.217
##  6 f       1         0   0.626
##  7 g       1         0   2.62 
##  8 h       1         0   1.42 
##  9 u       1         0   1.54 
## 10 j       1         0   3.05 
## # ... with 50 more rows
…
In summary, you can compute the slope of a linear function between \(y\) and \(x\) and using lm(), where you use ~ to describe the relationship. You also need to use $ to subset the slopes directly.

9.2 Calculating slopes of all subjects, groups and conditions

Now that we know how to compute slope for each subject, let’s calculate slopes of our entire dataset.

df

## # A tibble: 200 x 6
##    Subject  absBP    SF Group     Condition logSF
##    <chr>    <dbl> <dbl> <fct>     <fct>     <dbl>
##  1 A1      0.0747   0.5 Amblyopia One          -1
##  2 A1      0.678    1   Amblyopia One           0
##  3 A1      0.868    2   Amblyopia One           1
##  4 A1      1.45     4   Amblyopia One           2
##  5 A1      0.868    8   Amblyopia One           3
##  6 A10     0.139    0.5 Amblyopia One          -1
##  7 A10     0.448    1   Amblyopia One           0
##  8 A10     0.667    2   Amblyopia One           1
##  9 A10     1.12     4   Amblyopia One           2
## 10 A10     1.70     8   Amblyopia One           3
## # ... with 190 more rows
…
We observe that there are 13 outliers, 2 of which are considered to be extreme points. identify_outliers() pinpoint outliers based on the definition of boxplots. Outliers in boxplots can be ignored. However, extreme points can be considered to be slightly troublesome. In this example, 2 out of 230 (nrow(df)) observations seem to be extreme points. Therefore, the data set meets the requirement to be analyzed using two-way ANOVA.

10.8.2 Checking for Normality of Data

Let’s check for the normality of the data using shapiro_test() from the rstatix package for each Day and Time. To do so, we will have to group our data using group_by() for Day and Time.

df %>% group_by(Day, Time) %>%
  shapiro_test(Cbratio)

## # A tibble: 30 x 5
##    Day   Time  variable statistic     p
##    <fct> <fct> <chr>        <dbl> <dbl>
##  1 1     0     Cbratio      0.913 0.306
##  2 1     3     Cbratio      0.947 0.630
##  3 1     6     Cbratio      0.899 0.213
##  4 1     12    Cbratio      0.897 0.201
##  5 1     24    Cbratio      0.918 0.341
##  6 1     48    Cbratio      0.964 0.831
##  7 2     0     Cbratio      0.925 0.398
##  8 2     3     Cbratio      0.912 0.292
##  9 2     6     Cbratio      0.900 0.221
## 10 2     12    Cbratio      0.934 0.493
## # ... with 20 more rows
…
13.2 Data Visualization

First, let’s compute the average, standard errors and standard deviation using the dataset. It is recommended that the reader has read Chapters 5 and 6 already. Understanding of summarise(), filter(), mutate() and %>% is assumed.

The code below reorganizes the ACh dataset so that instead of containing the data of each subject, it now contains the averaged data across Repetition and SpatialFreq as well as their standard errors and standard deviations. We use mean() to compute the mean, sm_stdErr() the standard error, and sd() the standard deviation.

ACh_avg <- ACh %>% 
  group_by(Repetition, SpatialFreq) %>%
  summarise(avgSens = mean(Sensitivity),
            stdErrSens = sm_stdErr(Sensitivity),
            stdDevSens = sd(Sensitivity))
  
ACh_avg

## # A tibble: 24 x 5
## # Groups:   Repetition [2]
##    Repetition SpatialFreq avgSens stdErrSens stdDevSens
##         <dbl>       <dbl>   <dbl>      <dbl>      <dbl>
##  1          1        0.25    12.6      0.743       5.31
##  2          1        0.35    14.7      0.777       5.55
##  3          1        0.49    18.6      0.993       7.09
##  4          1        0.68    23.7      1.22        8.71
##  5          1        0.94    28.7      1.36        9.68
##  6          1        1.31    32.0      1.40        9.99
##  7          1        1.83    32.4      1.43       10.2 
##  8          1        2.54    29.6      1.39        9.93
##  9          1        3.54    24.3      1.22        8.70
## 10          1        4.93    18.1      0.960       6.85
## # ... with 14 more rows
…
To facet the plot, you need to have a data frame that has data with a column that specifies the categorical variable. For instance, let’s look at the data frame ACh_avg.

ACh_avg

## # A tibble: 24 x 5
## # Groups:   Repetition [2]
##    Repetition SpatialFreq avgSens stdErrSens stdDevSens
##    <fct>            <dbl>   <dbl>      <dbl>      <dbl>
##  1 1                 0.25    12.6      0.743       5.31
##  2 1                 0.35    14.7      0.777       5.55
##  3 1                 0.49    18.6      0.993       7.09
##  4 1                 0.68    23.7      1.22        8.71
##  5 1                 0.94    28.7      1.36        9.68
##  6 1                 1.31    32.0      1.40        9.99
##  7 1                 1.83    32.4      1.43       10.2 
##  8 1                 2.54    29.6      1.39        9.93
##  9 1                 3.54    24.3      1.22        8.70
## 10 1                 4.93    18.1      0.960       6.85
## # ... with 14 more rows
…
14.1 Area under a Curve

Area under a curve under the contrast sensitivity function (CSF) as an index of visual performance or sensitivity. The higher the areal measure, the better the visual performance. There are two ways to calculate the area: 1) trapezoidal integration of the contrast sensitivity data as a function of spatial frequency, and 2) area under the fitted log CSF (AULCSF).

Let’s create a data frame ACh_avg that contains the averaged contrast sensitivity data for each repetition and spatial frequency across 51 subjects.

ACh_avg <- ACh %>% 
  group_by(Repetition, SpatialFreq) %>%
  summarise(avgSens = mean(Sensitivity),
            stdErrSens = sm_stdErr(Sensitivity),
            stdDevSens = sd(Sensitivity))
  
ACh_avg

## # A tibble: 24 x 5
## # Groups:   Repetition [2]
##    Repetition SpatialFreq avgSens stdErrSens stdDevSens
##         <dbl>       <dbl>   <dbl>      <dbl>      <dbl>
##  1          1        0.25    12.6      0.743       5.31
##  2          1        0.35    14.7      0.777       5.55
##  3          1        0.49    18.6      0.993       7.09
##  4          1        0.68    23.7      1.22        8.71
##  5          1        0.94    28.7      1.36        9.68
##  6          1        1.31    32.0      1.40        9.99
##  7          1        1.83    32.4      1.43       10.2 
##  8          1        2.54    29.6      1.39        9.93
##  9          1        3.54    24.3      1.22        8.70
## 10          1        4.93    18.1      0.960       6.85
## # ... with 14 more rows
…
Notice that these that AUC and AULCSF are slightly different. AUC denotes the area that is enclosed by the lines that connect each point. AULCSF refers to the area that is enclosed by the fitted contrast sensitivity function. The astute reader may realize that if the fit of the contrast sensitivity function is poor, then the AULCSF might not be accurate. Hence, it might be necessary to prove that the CSF fit is robust with the given data. To avoid these hassles, some researchers use AUC instead. Nevertheless, smCSF offers functions that compute both AUC and AULCSF.

The higher the AUC and AULCSF are, the higher the overall sensitivity of the observer. Therefore, when potential treatment is being studied, it is of interest to see an increase in AUC and AULCSF in the visually impaired after their treatment.

14.2 sm_trapz(), sm_AULCSF() and sm_r2()

This section is identical to what we have seen in Chapter 6. For those who have read Chapter 6, the only difference is that these AUCs should be in log scales (both x and y scales) in the context of contrast sensitivity.

Recall that ACh_avg contains averaged contrast sensitivity for each spatial frequency across 51 observers for the first repetition.

ACh_avg 

## # A tibble: 24 x 5
## # Groups:   Repetition [2]
##    Repetition SpatialFreq avgSens stdErrSens stdDevSens
##    <fct>            <dbl>   <dbl>      <dbl>      <dbl>
##  1 1                 0.25    12.6      0.743       5.31
##  2 1                 0.35    14.7      0.777       5.55
##  3 1                 0.49    18.6      0.993       7.09
##  4 1                 0.68    23.7      1.22        8.71
##  5 1                 0.94    28.7      1.36        9.68
##  6 1                 1.31    32.0      1.40        9.99
##  7 1                 1.83    32.4      1.43       10.2 
##  8 1                 2.54    29.6      1.39        9.93
##  9 1                 3.54    24.3      1.22        8.70
## 10 1                 4.93    18.1      0.960       6.85
## # ... with 14 more rows
…
If the residual is very low, then the distance between the actual and predicted data should be close to 0. We see that the residual is low when the spatial frequency is between 3 and 10 c/deg. In this case, the general fit is very faithful to the original data, so the residual is low and R2 is high (close to 1). In sum, the lower the residuals, the higher the R2, which ranges from 0 to 1.

14.3 Calculating area and R2 of all subjects, groups and conditions

Now that we know how to calculate AUC, AULCSF and R2 for each subject, let’s calculate slopes of our entire dataset.

ACh

## # A tibble: 1,224 x 4
##    Subject Repetition SpatialFreq Sensitivity
##    <chr>        <dbl>       <dbl>       <dbl>
##  1 S1               1        0.25       23.8 
##  2 S2               1        0.25       18.0 
##  3 S3               1        0.25       14.2 
##  4 S4               1        0.25        5.14
##  5 S5               1        0.25       16.0 
##  6 S6               1        0.25       10.9 
##  7 S7               1        0.25        8.41
##  8 S8               1        0.25       10.5 
##  9 S9               1        0.25        9.06
## 10 S10              1        0.25        3.57
## # ... with 1,214 more rows
…
We now have recreated the same plot without using sm_ribbonCSF().

15.4 Calculating the five parameters of all subjects, groups and conditions

So far, we have discussed in detail what the parameters mean and how sm_CSF() and sm_ribbonCSF() plot the CSF curves. We have also discussed how to use sm_params() with the given data. Now, lets use sm_params_list() to compute the five parameters of all subjects across groups and conditions. To do so, we will need a data frame that contains the data of each observer that has been assigned to a group and condition. ACh1 is an example of such a data frame.

ACh

## # A tibble: 1,224 x 4
##    Subject Repetition SpatialFreq Sensitivity
##    <chr>        <dbl>       <dbl>       <dbl>
##  1 S1               1        0.25       23.8 
##  2 S2               1        0.25       18.0 
##  3 S3               1        0.25       14.2 
##  4 S4               1        0.25        5.14
##  5 S5               1        0.25       16.0 
##  6 S6               1        0.25       10.9 
##  7 S7               1        0.25        8.41
##  8 S8               1        0.25       10.5 
##  9 S9               1        0.25        9.06
## 10 S10              1        0.25        3.57
## # ... with 1,214 more rows
…
