Chapter 10 Area under Curve, AULCSF and R2 of the CSF | Data Analysis and Visualization in R Using smplot
…
10.1 Area under a Curve

Area under a curve under the contrast sensitivity function (CSF) as an index of visual performance or sensitivity. The higher the areal measure, the better the visual performance. There are two ways to calculate the area: 1) trapezoidal integration of the contrast sensitivity data as a function of spatial frequency, and 2) area under the fitted log CSF (AULCSF).

Let’s create a data frame ACh_avg that contains the averaged contrast sensitivity data for each repetition and spatial frequency across 51 subjects.

ACh_avg <- ACh %>% 
  group_by(Repetition, SpatialFreq) %>%
  summarise(avgSens = mean(Sensitivity),
            stdErrSens = sm_stdErr(Sensitivity),
            stdDevSens = sd(Sensitivity))
  
ACh_avg

## # A tibble: 24 x 5
## # Groups:   Repetition [2]
##    Repetition SpatialFreq avgSens stdErrSens stdDevSens
##         <dbl>       <dbl>   <dbl>      <dbl>      <dbl>
##  1          1        0.25    12.6      0.743       5.31
##  2          1        0.35    14.7      0.777       5.55
##  3          1        0.49    18.6      0.993       7.09
##  4          1        0.68    23.7      1.22        8.71
##  5          1        0.94    28.7      1.36        9.68
##  6          1        1.31    32.0      1.40        9.99
##  7          1        1.83    32.4      1.43       10.2 
##  8          1        2.54    29.6      1.39        9.93
##  9          1        3.54    24.3      1.22        8.70
## 10          1        4.93    18.1      0.960       6.85
## # ... with 14 more rows
…
Notice that these that AUC and AULCSF are slightly different. AUC denotes the area that is enclosed by the lines that connect each point. AULCSF refers to the area that is enclosed by the fitted contrast sensitivity function. The astute reader may realize that if the fit of the contrast sensitivity function is poor, then the AULCSF might not be accurate. Hence, it might be necessary to prove that the CSF fit is robust with the given data. To avoid these hassles, some researchers use AUC instead. Nevertheless, smCSF offers functions that compute both AUC and AULCSF.

The higher the AUC and AULCSF are, the higher the overall sensitivity of the observer. Therefore, when potential treatment is being studied, it is of interest to see an increase in AUC and AULCSF in the visually impaired after their treatment.

10.2 sm_trapz(), sm_AULCSF() and sm_r2()

This section is identical to what we have seen in Chapter 6. For those who have read Chapter 6, the only difference is that these AUCs should be in log scales (both x and y scales) in the context of contrast sensitivity.

Recall that ACh_avg contains averaged contrast sensitivity for each spatial frequency across 51 observers for the first repetition.

ACh_avg 

## # A tibble: 24 x 5
## # Groups:   Repetition [2]
##    Repetition SpatialFreq avgSens stdErrSens stdDevSens
##    <fct>            <dbl>   <dbl>      <dbl>      <dbl>
##  1 1                 0.25    12.6      0.743       5.31
##  2 1                 0.35    14.7      0.777       5.55
##  3 1                 0.49    18.6      0.993       7.09
##  4 1                 0.68    23.7      1.22        8.71
##  5 1                 0.94    28.7      1.36        9.68
##  6 1                 1.31    32.0      1.40        9.99
##  7 1                 1.83    32.4      1.43       10.2 
##  8 1                 2.54    29.6      1.39        9.93
##  9 1                 3.54    24.3      1.22        8.70
## 10 1                 4.93    18.1      0.960       6.85
## # ... with 14 more rows
…
If the residual is very low, then the distance between the actual and predicted data should be close to 0. We see that the residual is low when the spatial frequency is between 3 and 10 c/deg. In this case, the general fit is very faithful to the original data, so the residual is low and R2 is high (close to 1). In sum, the lower the residuals, the higher the R2, which ranges from 0 to 1.

10.3 Calculating area and R2 of all subjects, groups and conditions

Now that we know how to calculate AUC, AULCSF and R2 for each subject, let’s calculate slopes of our entire dataset.

ACh

## # A tibble: 1,224 x 4
##    Subject Repetition SpatialFreq Sensitivity
##    <chr>        <dbl>       <dbl>       <dbl>
##  1 S1               1        0.25       23.8 
##  2 S2               1        0.25       18.0 
##  3 S3               1        0.25       14.2 
##  4 S4               1        0.25        5.14
##  5 S5               1        0.25       16.0 
##  6 S6               1        0.25       10.9 
##  7 S7               1        0.25        8.41
##  8 S8               1        0.25       10.5 
##  9 S9               1        0.25        9.06
## 10 S10              1        0.25        3.57
## # ... with 1,214 more rows
…
