Chapter 10 Basic Statistics | Data Analysis and Visualization in R Using smplot2
…
We observe that there are 13 outliers, 2 of which are considered to be extreme points. identify_outliers() pinpoint outliers based on the definition of boxplots. Outliers in boxplots can be ignored. However, extreme points can be considered to be slightly troublesome. In this example, 2 out of 230 (nrow(df)) observations seem to be extreme points. Therefore, the data set meets the requirement to be analyzed using two-way ANOVA.

10.7.2 Checking for Normality of Data

Let’s check for the normality of the data using shapiro_test() from the rstatix package for each Day and Time. To do so, we will have to group our data using group_by() for Day and Time.

df %>% group_by(Day, Time) %>%
  shapiro_test(Cbratio)

## # A tibble: 30 x 5
##    Day   Time  variable statistic     p
##    <fct> <fct> <chr>        <dbl> <dbl>
##  1 1     0     Cbratio      0.913 0.306
##  2 1     3     Cbratio      0.947 0.630
##  3 1     6     Cbratio      0.899 0.213
##  4 1     12    Cbratio      0.897 0.201
##  5 1     24    Cbratio      0.918 0.341
##  6 1     48    Cbratio      0.964 0.831
##  7 2     0     Cbratio      0.925 0.398
##  8 2     3     Cbratio      0.912 0.292
##  9 2     6     Cbratio      0.900 0.221
## 10 2     12    Cbratio      0.934 0.493
## # ... with 20 more rows
…
