Chapter 3 Basics of ggplot2 and Correlation Plot | Data Analysis and Visualization in R Using smplot2
…
I will be using an example from the book R for Data Science (https://r4ds.had.co.nz/data-visualisation.html).

Question: Do cars with large engines use up more fuel than the those with small ones?

First, let’s open mpg, which is a data frame stored in the ggplot2 package.

mpg contains data about cars in the US. You can type ?mpg for more information.

displ: the size of the car’s engine in liters

hwy: fuel efficiency. If it’s high, then the car uses less fuel per distance.

mpg

## # A tibble: 234 × 11
##    manufacturer model   displ  year   cyl trans drv     cty   hwy fl    class
##    <chr>        <chr>   <dbl> <int> <int> <chr> <chr> <int> <int> <chr> <chr>
##  1 audi         a4        1.8  1999     4 auto… f        18    29 p     comp…
##  2 audi         a4        1.8  1999     4 manu… f        21    29 p     comp…
##  3 audi         a4        2    2008     4 manu… f        20    31 p     comp…
##  4 audi         a4        2    2008     4 auto… f        21    30 p     comp…
##  5 audi         a4        2.8  1999     6 auto… f        16    26 p     comp…
##  6 audi         a4        2.8  1999     6 manu… f        18    26 p     comp…
##  7 audi         a4        3.1  2008     6 auto… f        18    27 p     comp…
##  8 audi         a4 qua…   1.8  1999     4 manu… 4        18    26 p     comp…
##  9 audi         a4 qua…   1.8  1999     4 auto… 4        16    25 p     comp…
## 10 audi         a4 qua…   2    2008     4 manu… 4        20    28 p     comp…
## # ℹ 224 more rows
…
