Chapter 4 Boxplot and Violin Plot | Data Analysis and Visualization in R Using smplot2
…
Here’s the boxplot! But I think there is a problem here. Day Three precedes Day Two in the x-axis.

Exercise: Why do you think Three appeared first?

4.2.4 Problem: Alphabetical order

The issue with the boxplot is that the x-axis follows an alphabetical order.

Th precedes Tw. In short, R does not seem to know that we want the order to be One -> Two -> Three.

R has decided to follow the alphabetical order is because the column Day is shown as <chr>, which means character.

df

## # A tibble: 90 x 3
##    Subject  Value Day  
##    <chr>    <dbl> <chr>
##  1 S1      -0.752 One  
##  2 S2       0.220 One  
##  3 S3      -1.00  One  
##  4 S4       1.91  One  
##  5 S5       0.395 One  
##  6 S6      -0.985 One  
##  7 S7       0.585 One  
##  8 S8       0.886 One  
##  9 S9       0.691 One  
## 10 S10     -0.366 One  
## # ... with 80 more rows
…
By using factor(), you are making the Day column of df into factor from character. However, you will need to store the factored version of df$Day by using <-. If not, df$Day will stay as character.

levels argument in factor() allows you to specify the order of the factors.

For more information about factors, please check Chapter 15 of R for Data Science (https://r4ds.had.co.nz/factors.html).

Note: you do not have to understand this part 100%. However, if you do encounter similar issues, I suggest you resolve it with the solution above.

4.2.6 Double-check if the ‘Day’ column is factor

Let’s open the data frame df again.

df

## # A tibble: 90 x 3
##    Subject  Value Day  
##    <chr>    <dbl> <fct>
##  1 S1      -0.752 One  
##  2 S2       0.220 One  
##  3 S3      -1.00  One  
##  4 S4       1.91  One  
##  5 S5       0.395 One  
##  6 S6      -0.985 One  
##  7 S7       0.585 One  
##  8 S8       0.886 One  
##  9 S9       0.691 One  
## 10 S10     -0.366 One  
## # ... with 80 more rows
…
