Chapter 8 Calculating Area under a Curve | Data Analysis and Visualization in R Using smplot2
…
The steps above (filter(), group_by() and summarise()) are coded separately. Each line has one of these steps. However, these can be combined in one line by using pipe %>% as shown below.

avg_day1 <- df %>% filter(Day == 1) %>% group_by(Time) %>%
  summarise(Average = mean(Cbratio),
          StdError = sm_stdErr(Cbratio))

Now the steps (filter(), group_by() and summarise()) are written from left-to-right in a continuous fashion, rather than a separate step.

Pipe %>% is part of the tidyverse package, and it is deemed a necessary tool for data analysis using R. It is extremely useful because it allows you to write codes that are easier to understand. Notice that if you use %>%, the input does not have to written because the input is actually the code that is written just before. For example:

df %>% filter(Day == 1)

## # A tibble: 60 x 4
##    Subject Day    Time Cbratio
##    <chr>   <fct> <dbl>   <dbl>
##  1 a       1         0  -0.421
##  2 b       1         0   2.82 
##  3 c       1         0   1.69 
##  4 d       1         0   2.55 
##  5 e       1         0  -0.217
##  6 f       1         0   0.626
##  7 g       1         0   2.62 
##  8 h       1         0   1.42 
##  9 u       1         0   1.54 
## 10 j       1         0   3.05 
## # ... with 50 more rows

filter(df, Day == 1)

## # A tibble: 60 x 4
##    Subject Day    Time Cbratio
##    <chr>   <fct> <dbl>   <dbl>
##  1 a       1         0  -0.421
##  2 b       1         0   2.82 
##  3 c       1         0   1.69 
##  4 d       1         0   2.55 
##  5 e       1         0  -0.217
##  6 f       1         0   0.626
##  7 g       1         0   2.62 
##  8 h       1         0   1.42 
##  9 u       1         0   1.54 
## 10 j       1         0   3.05 
## # ... with 50 more rows
…
