Chapter 9 Calculating Linear Slopes | Visualizing Data for Publications Using smplot2
…
In summary, you can compute the slope of a linear function between \(y\) and \(x\) and using lm(), where you use ~ to describe the relationship. You also need to use $ to subset the slopes directly.

9.2 Calculating slopes of all subjects, groups and conditions

Now that we know how to compute slope for each subject, let’s calculate slopes of our entire dataset.

df

## # A tibble: 180 × 6
##    Subject  absBP    SF Group     Condition logSF
##    <chr>    <dbl> <dbl> <fct>     <fct>     <dbl>
##  1 A1      0.0747   0.5 Amblyopia One          -1
##  2 A1      0.678    1   Amblyopia One           0
##  3 A1      0.868    2   Amblyopia One           1
##  4 A1      1.45     4   Amblyopia One           2
##  5 A1      0.868    8   Amblyopia One           3
##  6 A2      0.237    0.5 Amblyopia One          -1
##  7 A2      0.397    1   Amblyopia One           0
##  8 A2      0.813    2   Amblyopia One           1
##  9 A2      0.643    4   Amblyopia One           2
## 10 A2      0.797    8   Amblyopia One           3
## # ℹ 170 more rows
…
After checking, we can store the results from sm_slope_all() into a new variable. I will call the new variable slope_df.

slope_df <- sm_slope_all(
  subjects = "Subject",
  conditions = "Condition",
  groups = "Group",
  x = "logSF", values = "absBP",
  data = df
)

## Slope =  absBP  ~  logSF

slope_df

## # A tibble: 36 × 4
##    Subject Condition Group       Slope
##    <chr>   <fct>     <fct>       <dbl>
##  1 A1      One       Amblyopia  0.236 
##  2 A1      Two       Amblyopia  0.283 
##  3 A2      One       Amblyopia  0.137 
##  4 A2      Two       Amblyopia  0.164 
##  5 A3      One       Amblyopia  0.382 
##  6 A3      Two       Amblyopia  0.458 
##  7 A4      One       Amblyopia  0.227 
##  8 A4      Two       Amblyopia  0.272 
##  9 A5      One       Amblyopia -0.0158
## 10 A5      Two       Amblyopia -0.0189
## # ℹ 26 more rows
…
