Chapter 5 Combining Plots with Common Axes | Data Analysis and Visualization in R Using smplot
…
The first argument of filter(), select(), summarise() and mutate() is a data frame.

The subsequent argument specifies how the data frame should be treated.

The new printed result is a new data frame.

filter() is used to filter for rows that meet the requirement of your interest.

Here is another example.

filter(df, Day == 1)

## # A tibble: 60 x 4
##    Subject Day    Time Cbratio
##    <chr>   <fct> <dbl>   <dbl>
##  1 S1      1         0  -0.421
##  2 S2      1         0   2.82 
##  3 S3      1         0   1.69 
##  4 S4      1         0   2.55 
##  5 S5      1         0  -0.217
##  6 S6      1         0   0.626
##  7 S7      1         0   2.62 
##  8 S8      1         0   1.42 
##  9 S9      1         0   1.54 
## 10 S10     1         0   3.05 
## # ... with 50 more rows
…
## # A tibble: 6 x 4
##   Subject Day    Time Cbratio
##   <chr>   <fct> <dbl>   <dbl>
## 1 S1      1         0  -0.421
## 2 S1      1         1   0.802
## 3 S1      1         2   1.01 
## 4 S1      1         3   0.634
## 5 S1      1         4  -0.245
## 6 S1      1         5  -0.834

The above can be read as: filter for all rows of the data frame df that have 1 in the Day column AND have S1 in the Subject column.

filter(df, Day == 1 | Subject == 'S1')

## # A tibble: 66 x 4
##    Subject Day    Time Cbratio
##    <chr>   <fct> <dbl>   <dbl>
##  1 S1      1         0  -0.421
##  2 S2      1         0   2.82 
##  3 S3      1         0   1.69 
##  4 S4      1         0   2.55 
##  5 S5      1         0  -0.217
##  6 S6      1         0   0.626
##  7 S7      1         0   2.62 
##  8 S8      1         0   1.42 
##  9 S9      1         0   1.54 
## 10 S10     1         0   3.05 
## # ... with 56 more rows
…
## # A tibble: 1 x 1
##   average
##     <dbl>
## 1    1.35

However, in this case, we get an example of Cbratio across Subject, Day and Time. This average value itself is not so meaningful. If we wish to obtain the average for each Day and Time, we can use the function group_by() to group data for each day and time.

As it was the case before, the first argument of group_by() is a data frame.

The second argument of group_by() is the name of the column through which you would like to group the data.

by_day_time <- group_by(df, Day, Time)
print(by_day_time)

## # A tibble: 120 x 4
## # Groups:   Day, Time [12]
##    Subject Day    Time Cbratio
##    <chr>   <fct> <dbl>   <dbl>
##  1 S1      1         0  -0.421
##  2 S2      1         0   2.82 
##  3 S3      1         0   1.69 
##  4 S4      1         0   2.55 
##  5 S5      1         0  -0.217
##  6 S6      1         0   0.626
##  7 S7      1         0   2.62 
##  8 S8      1         0   1.42 
##  9 S9      1         0   1.54 
## 10 S10     1         0   3.05 
## # ... with 110 more rows
…
