Chapter 5 Data Analysis (in development) | Data Visualization in R Using smplot
…
%>% is called the pipe. The above code can be read as: filter for all rows of the dataframe df that have S1 in the Subject column.

Here is another example.

df %>% filter(Day == 1)

## # A tibble: 60 x 4
##    Subject Day    Time Cbratio
##    <chr>   <fct> <dbl>   <dbl>
##  1 S1      1         0  -0.421
##  2 S2      1         0   2.82 
##  3 S3      1         0   1.69 
##  4 S4      1         0   2.55 
##  5 S5      1         0  -0.217
##  6 S6      1         0   0.626
##  7 S7      1         0   2.62 
##  8 S8      1         0   1.42 
##  9 S9      1         0   1.54 
## 10 S10     1         0   3.05 
## # ... with 50 more rows
…
## # A tibble: 6 x 4
##   Subject Day    Time Cbratio
##   <chr>   <fct> <dbl>   <dbl>
## 1 S1      1         0  -0.421
## 2 S1      1         1   0.802
## 3 S1      1         2   1.01 
## 4 S1      1         3   0.634
## 5 S1      1         4  -0.245
## 6 S1      1         5  -0.834

The above can be read as: filter for all rows of the dataframe df that have 1 in the Day column AND have S1 in the Subject column.

df %>% filter(Day == 1 | Subject == 'S1') 

## # A tibble: 66 x 4
##    Subject Day    Time Cbratio
##    <chr>   <fct> <dbl>   <dbl>
##  1 S1      1         0  -0.421
##  2 S2      1         0   2.82 
##  3 S3      1         0   1.69 
##  4 S4      1         0   2.55 
##  5 S5      1         0  -0.217
##  6 S6      1         0   0.626
##  7 S7      1         0   2.62 
##  8 S8      1         0   1.42 
##  9 S9      1         0   1.54 
## 10 S10     1         0   3.05 
## # ... with 56 more rows
…
