Chapter 16 Factor Analysis and CSF | Data Analysis and Visualization in R Using smplot2
…
## [1] "CSF parameters = Sensitivity ~ SpatialFreq"

After we compute the four parameters of the parabola model of CSF for each subject, we resample them with replacement. Note that the sample size with resampled data should be identical to the original sample size (nObs <- 51).

nObs <- 51
nSim <- 100 # 100 simulations

Then, we can perform non-parametric bootstrapping and obtain 95% confidence interval of the eigenvalues using sm_np_boot(). It produces a data frame with the confidence intervals from re-sampling and mean eigenvalue from the multiple rounds of re-sampling. This is stored on boot_res.

boot_res <- sm_np_boot(param_res, n=nObs, nSim = nSim)
boot_res

## # A tibble: 24 x 5
##       mean downCI    upCI group  nFac
##      <dbl>  <dbl>   <dbl> <chr> <dbl>
##  1  8.51    7.36   9.75   data      1
##  2  2.09    1.25   3.07   data      2
##  3  0.417   0.140  0.765  data      3
##  4 -0.0858 -0.152 -0.0413 data      4
##  5 -0.116  -0.174 -0.0798 data      5
##  6 -0.150  -0.214 -0.101  data      6
##  7 -0.207  -0.296 -0.132  data      7
##  8 -0.253  -0.378 -0.156  data      8
##  9 -0.319  -0.438 -0.200  data      9
## 10 -0.380  -0.539 -0.231  data     10
## # ... with 14 more rows
…
