Chapter 13 Plotting the Contrast Sensitivity Function | Data Analysis and Visualization in R Using smplot2
…
13.2 Data Visualization

First, let’s compute the average, standard errors and standard deviation using the dataset. It is recommended that the reader has read Chapters 5 and 6 already. Understanding of summarise(), filter(), mutate() and %>% is assumed.

The code below reorganizes the ACh dataset so that instead of containing the data of each subject, it now contains the averaged data across Repetition and SpatialFreq as well as their standard errors and standard deviations. We use mean() to compute the mean, sm_stdErr() the standard error, and sd() the standard deviation.

ACh_avg <- ACh %>% 
  group_by(Repetition, SpatialFreq) %>%
  summarise(avgSens = mean(Sensitivity),
            stdErrSens = sm_stdErr(Sensitivity),
            stdDevSens = sd(Sensitivity))
  
ACh_avg

## # A tibble: 24 x 5
## # Groups:   Repetition [2]
##    Repetition SpatialFreq avgSens stdErrSens stdDevSens
##         <dbl>       <dbl>   <dbl>      <dbl>      <dbl>
##  1          1        0.25    12.6      0.743       5.31
##  2          1        0.35    14.7      0.777       5.55
##  3          1        0.49    18.6      0.993       7.09
##  4          1        0.68    23.7      1.22        8.71
##  5          1        0.94    28.7      1.36        9.68
##  6          1        1.31    32.0      1.40        9.99
##  7          1        1.83    32.4      1.43       10.2 
##  8          1        2.54    29.6      1.39        9.93
##  9          1        3.54    24.3      1.22        8.70
## 10          1        4.93    18.1      0.960       6.85
## # ... with 14 more rows
…
To facet the plot, you need to have a data frame that has data with a column that specifies the categorical variable. For instance, let’s look at the data frame ACh_avg.

ACh_avg

## # A tibble: 24 x 5
## # Groups:   Repetition [2]
##    Repetition SpatialFreq avgSens stdErrSens stdDevSens
##    <fct>            <dbl>   <dbl>      <dbl>      <dbl>
##  1 1                 0.25    12.6      0.743       5.31
##  2 1                 0.35    14.7      0.777       5.55
##  3 1                 0.49    18.6      0.993       7.09
##  4 1                 0.68    23.7      1.22        8.71
##  5 1                 0.94    28.7      1.36        9.68
##  6 1                 1.31    32.0      1.40        9.99
##  7 1                 1.83    32.4      1.43       10.2 
##  8 1                 2.54    29.6      1.39        9.93
##  9 1                 3.54    24.3      1.22        8.70
## 10 1                 4.93    18.1      0.960       6.85
## # ... with 14 more rows
…
