Chapter 11 Understanding the Contrast Sensitivity Function | Data Analysis and Visualization in R Using smplot
…
We now have recreated the same plot without using sm_ribbonCSF().

11.4 Calculating the five parameters of all subjects, groups and conditions

So far, we have discussed in detail what the parameters mean and how sm_CSF() and sm_ribbonCSF() plot the CSF curves. We have also discussed how to use sm_params() with the given data. Now, lets use sm_params_list() to compute the five parameters of all subjects across groups and conditions. To do so, we will need a data frame that contains the data of each observer that has been assigned to a group and condition. ACh1 is an example of such a data frame.

ACh

## # A tibble: 1,224 x 4
##    Subject Repetition SpatialFreq Sensitivity
##    <chr>        <dbl>       <dbl>       <dbl>
##  1 S1               1        0.25       23.8 
##  2 S2               1        0.25       18.0 
##  3 S3               1        0.25       14.2 
##  4 S4               1        0.25        5.14
##  5 S5               1        0.25       16.0 
##  6 S6               1        0.25       10.9 
##  7 S7               1        0.25        8.41
##  8 S8               1        0.25       10.5 
##  9 S9               1        0.25        9.06
## 10 S10              1        0.25        3.57
## # ... with 1,214 more rows
…
